=================================================================================================================
Hak Cipta Hanya Milik Allah azza wa jalla.
Jika anda menemukan kendala dalam Menggunakan CMS Swarakalibata versi Codeigniter ini maka jangan sungkan-sungkan 
untuk bertanya Melalui Forum Khusus kita sediakan untuk Para sobat yang ingin mendalami pemrograman web. salam,..
=================================================================================================================
Developer : Robby Prihandaya
Main Web  : https://phpmu.com
Forum 	  : https://members.phpmu.com
Email     : robby.prihandaya@gmail.com
No Telp   : 081267771344